-------------------------------------------------------------------------------
Test set: resources.TransferResourceIntTest
-------------------------------------------------------------------------------
Tests run: 5, Failures: 0, Errors: 0, Skipped: 0, Time elapsed: 0.139 s - in resources.TransferResourceIntTest
