<?xml version="1.0" encoding="UTF-8"?>
<testsuite xmlns:xsi="http://www.w3.org/2001/XMLSchema-instance" xsi:noNamespaceSchemaLocation="https://maven.apache.org/surefire/maven-surefire-plugin/xsd/surefire-test-report.xsd" name="resources.AccountResourceIntTest" time="0.023" tests="9" errors="0" skipped="0" failures="0">
  <properties>
    <property name="gopherProxySet" value="false"/>
    <property name="awt.toolkit" value="sun.lwawt.macosx.LWCToolkit"/>
    <property name="java.specification.version" value="11"/>
    <property name="sun.cpu.isalist" value=""/>
    <property name="sun.jnu.encoding" value="UTF-8"/>
    <property name="java.class.path" value="/Users/nicolassleiman/IdeaProjects/revolut/revolut-challenge/target/test-classes:/Users/nicolassleiman/IdeaProjects/revolut/revolut-challenge/target/classes:/Users/nicolassleiman/.m2/repository/io/dropwizard/dropwizard-core/2.0.0-rc9/dropwizard-core-2.0.0-rc9.jar:/Users/nicolassleiman/.m2/repository/io/dropwizard/dropwizard-util/2.0.0-rc9/dropwizard-util-2.0.0-rc9.jar:/Users/nicolassleiman/.m2/repository/com/fasterxml/jackson/core/jackson-annotations/2.9.0/jackson-annotations-2.9.0.jar:/Users/nicolassleiman/.m2/repository/com/google/guava/guava/28.1-jre/guava-28.1-jre.jar:/Users/nicolassleiman/.m2/repository/com/google/guava/failureaccess/1.0.1/failureaccess-1.0.1.jar:/Users/nicolassleiman/.m2/repository/com/google/guava/listenablefuture/9999.0-empty-to-avoid-conflict-with-guava/listenablefuture-9999.0-empty-to-avoid-conflict-with-guava.jar:/Users/nicolassleiman/.m2/repository/org/checkerframework/checker-qual/2.8.1/checker-qual-2.8.1.jar:/Users/nicolassleiman/.m2/repository/com/google/errorprone/error_prone_annotations/2.3.2/error_prone_annotations-2.3.2.jar:/Users/nicolassleiman/.m2/repository/com/google/j2objc/j2objc-annotations/1.3/j2objc-annotations-1.3.jar:/Users/nicolassleiman/.m2/repository/org/codehaus/mojo/animal-sniffer-annotations/1.18/animal-sniffer-annotations-1.18.jar:/Users/nicolassleiman/.m2/repository/com/google/code/findbugs/jsr305/3.0.2/jsr305-3.0.2.jar:/Users/nicolassleiman/.m2/repository/joda-time/joda-time/2.10.3/joda-time-2.10.3.jar:/Users/nicolassleiman/.m2/repository/io/dropwizard/dropwizard-jackson/2.0.0-rc9/dropwizard-jackson-2.0.0-rc9.jar:/Users/nicolassleiman/.m2/repository/com/github/ben-manes/caffeine/caffeine/2.8.0/caffeine-2.8.0.jar:/Users/nicolassleiman/.m2/repository/com/fasterxml/jackson/core/jackson-core/2.9.9/jackson-core-2.9.9.jar:/Users/nicolassleiman/.m2/repository/com/fasterxml/jackson/core/jackson-databind/2.9.9.3/jackson-databind-2.9.9.3.jar:/Users/nicolassleiman/.m2/repository/com/fasterxml/jackson/datatype/jackson-datatype-guava/2.9.9/jackson-datatype-guava-2.9.9.jar:/Users/nicolassleiman/.m2/repository/com/fasterxml/jackson/datatype/jackson-datatype-jsr310/2.9.9/jackson-datatype-jsr310-2.9.9.jar:/Users/nicolassleiman/.m2/repository/com/fasterxml/jackson/datatype/jackson-datatype-jdk8/2.9.9/jackson-datatype-jdk8-2.9.9.jar:/Users/nicolassleiman/.m2/repository/com/fasterxml/jackson/module/jackson-module-parameter-names/2.9.9/jackson-module-parameter-names-2.9.9.jar:/Users/nicolassleiman/.m2/repository/com/fasterxml/jackson/module/jackson-module-afterburner/2.9.9/jackson-module-afterburner-2.9.9.jar:/Users/nicolassleiman/.m2/repository/com/fasterxml/jackson/datatype/jackson-datatype-joda/2.9.9/jackson-datatype-joda-2.9.9.jar:/Users/nicolassleiman/.m2/repository/io/dropwizard/dropwizard-validation/2.0.0-rc9/dropwizard-validation-2.0.0-rc9.jar:/Users/nicolassleiman/.m2/repository/org/hibernate/validator/hibernate-validator/6.0.17.Final/hibernate-validator-6.0.17.Final.jar:/Users/nicolassleiman/.m2/repository/javax/validation/validation-api/2.0.1.Final/validation-api-2.0.1.Final.jar:/Users/nicolassleiman/.m2/repository/org/jboss/logging/jboss-logging/3.3.2.Final/jboss-logging-3.3.2.Final.jar:/Users/nicolassleiman/.m2/repository/com/fasterxml/classmate/1.3.4/classmate-1.3.4.jar:/Users/nicolassleiman/.m2/repository/org/glassfish/jakarta.el/3.0.2/jakarta.el-3.0.2.jar:/Users/nicolassleiman/.m2/repository/org/javassist/javassist/3.25.0-GA/javassist-3.25.0-GA.jar:/Users/nicolassleiman/.m2/repository/io/dropwizard/dropwizard-configuration/2.0.0-rc9/dropwizard-configuration-2.0.0-rc9.jar:/Users/nicolassleiman/.m2/repository/com/fasterxml/jackson/dataformat/jackson-dataformat-yaml/2.9.9/jackson-dataformat-yaml-2.9.9.jar:/Users/nicolassleiman/.m2/repository/org/yaml/snakeyaml/1.23/snakeyaml-1.23.jar:/Users/nicolassleiman/.m2/repository/org/apache/commons/commons-lang3/3.9/commons-lang3-3.9.jar:/Users/nicolassleiman/.m2/repository/org/apache/commons/commons-text/1.7/commons-text-1.7.jar:/Users/nicolassleiman/.m2/repository/io/dropwizard/dropwizard-logging/2.0.0-rc9/dropwizard-logging-2.0.0-rc9.jar:/Users/nicolassleiman/.m2/repository/io/dropwizard/metrics/metrics-logback/4.1.0/metrics-logback-4.1.0.jar:/Users/nicolassleiman/.m2/repository/org/slf4j/jul-to-slf4j/1.7.28/jul-to-slf4j-1.7.28.jar:/Users/nicolassleiman/.m2/repository/io/dropwizard/logback/logback-throttling-appender/1.0.1/logback-throttling-appender-1.0.1.jar:/Users/nicolassleiman/.m2/repository/org/slf4j/log4j-over-slf4j/1.7.28/log4j-over-slf4j-1.7.28.jar:/Users/nicolassleiman/.m2/repository/org/eclipse/jetty/jetty-util/9.4.20.v20190813/jetty-util-9.4.20.v20190813.jar:/Users/nicolassleiman/.m2/repository/io/dropwizard/dropwizard-metrics/2.0.0-rc9/dropwizard-metrics-2.0.0-rc9.jar:/Users/nicolassleiman/.m2/repository/io/dropwizard/dropwizard-jersey/2.0.0-rc9/dropwizard-jersey-2.0.0-rc9.jar:/Users/nicolassleiman/.m2/repository/org/glassfish/jersey/core/jersey-server/2.29/jersey-server-2.29.jar:/Users/nicolassleiman/.m2/repository/org/glassfish/jersey/core/jersey-common/2.29/jersey-common-2.29.jar:/Users/nicolassleiman/.m2/repository/org/glassfish/hk2/osgi-resource-locator/1.0.3/osgi-resource-locator-1.0.3.jar:/Users/nicolassleiman/.m2/repository/com/sun/activation/jakarta.activation/1.2.1/jakarta.activation-1.2.1.jar:/Users/nicolassleiman/.m2/repository/jakarta/ws/rs/jakarta.ws.rs-api/2.1.5/jakarta.ws.rs-api-2.1.5.jar:/Users/nicolassleiman/.m2/repository/org/glassfish/jersey/media/jersey-media-jaxb/2.29/jersey-media-jaxb-2.29.jar:/Users/nicolassleiman/.m2/repository/jakarta/annotation/jakarta.annotation-api/1.3.4/jakarta.annotation-api-1.3.4.jar:/Users/nicolassleiman/.m2/repository/org/glassfish/hk2/external/jakarta.inject/2.5.0/jakarta.inject-2.5.0.jar:/Users/nicolassleiman/.m2/repository/jakarta/xml/bind/jakarta.xml.bind-api/2.3.2/jakarta.xml.bind-api-2.3.2.jar:/Users/nicolassleiman/.m2/repository/jakarta/activation/jakarta.activation-api/1.2.1/jakarta.activation-api-1.2.1.jar:/Users/nicolassleiman/.m2/repository/org/glassfish/jersey/ext/jersey-metainf-services/2.29/jersey-metainf-services-2.29.jar:/Users/nicolassleiman/.m2/repository/org/glassfish/jersey/ext/jersey-bean-validation/2.29/jersey-bean-validation-2.29.jar:/Users/nicolassleiman/.m2/repository/org/glassfish/jersey/inject/jersey-hk2/2.29/jersey-hk2-2.29.jar:/Users/nicolassleiman/.m2/repository/org/glassfish/hk2/hk2-locator/2.5.0/hk2-locator-2.5.0.jar:/Users/nicolassleiman/.m2/repository/org/glassfish/hk2/external/aopalliance-repackaged/2.5.0/aopalliance-repackaged-2.5.0.jar:/Users/nicolassleiman/.m2/repository/org/glassfish/hk2/hk2-api/2.5.0/hk2-api-2.5.0.jar:/Users/nicolassleiman/.m2/repository/org/glassfish/hk2/hk2-utils/2.5.0/hk2-utils-2.5.0.jar:/Users/nicolassleiman/.m2/repository/io/dropwizard/metrics/metrics-jersey2/4.1.0/metrics-jersey2-4.1.0.jar:/Users/nicolassleiman/.m2/repository/com/fasterxml/jackson/jaxrs/jackson-jaxrs-json-provider/2.9.9/jackson-jaxrs-json-provider-2.9.9.jar:/Users/nicolassleiman/.m2/repository/com/fasterxml/jackson/jaxrs/jackson-jaxrs-base/2.9.9/jackson-jaxrs-base-2.9.9.jar:/Users/nicolassleiman/.m2/repository/com/fasterxml/jackson/module/jackson-module-jaxb-annotations/2.9.9/jackson-module-jaxb-annotations-2.9.9.jar:/Users/nicolassleiman/.m2/repository/org/glassfish/jersey/containers/jersey-container-servlet/2.29/jersey-container-servlet-2.29.jar:/Users/nicolassleiman/.m2/repository/org/glassfish/jersey/containers/jersey-container-servlet-core/2.29/jersey-container-servlet-core-2.29.jar:/Users/nicolassleiman/.m2/repository/org/eclipse/jetty/jetty-server/9.4.20.v20190813/jetty-server-9.4.20.v20190813.jar:/Users/nicolassleiman/.m2/repository/javax/servlet/javax.servlet-api/3.1.0/javax.servlet-api-3.1.0.jar:/Users/nicolassleiman/.m2/repository/org/eclipse/jetty/jetty-io/9.4.20.v20190813/jetty-io-9.4.20.v20190813.jar:/Users/nicolassleiman/.m2/repository/org/eclipse/jetty/jetty-webapp/9.4.20.v20190813/jetty-webapp-9.4.20.v20190813.jar:/Users/nicolassleiman/.m2/repository/org/eclipse/jetty/jetty-xml/9.4.20.v20190813/jetty-xml-9.4.20.v20190813.jar:/Users/nicolassleiman/.m2/repository/org/eclipse/jetty/jetty-continuation/9.4.20.v20190813/jetty-continuation-9.4.20.v20190813.jar:/Users/nicolassleiman/.m2/repository/javax/xml/bind/jaxb-api/2.3.1/jaxb-api-2.3.1.jar:/Users/nicolassleiman/.m2/repository/javax/activation/javax.activation-api/1.2.0/javax.activation-api-1.2.0.jar:/Users/nicolassleiman/.m2/repository/io/dropwizard/dropwizard-servlets/2.0.0-rc9/dropwizard-servlets-2.0.0-rc9.jar:/Users/nicolassleiman/.m2/repository/io/dropwizard/metrics/metrics-annotation/4.1.0/metrics-annotation-4.1.0.jar:/Users/nicolassleiman/.m2/repository/io/dropwizard/dropwizard-jetty/2.0.0-rc9/dropwizard-jetty-2.0.0-rc9.jar:/Users/nicolassleiman/.m2/repository/io/dropwizard/metrics/metrics-jetty9/4.1.0/metrics-jetty9-4.1.0.jar:/Users/nicolassleiman/.m2/repository/org/eclipse/jetty/jetty-servlet/9.4.20.v20190813/jetty-servlet-9.4.20.v20190813.jar:/Users/nicolassleiman/.m2/repository/org/eclipse/jetty/jetty-security/9.4.20.v20190813/jetty-security-9.4.20.v20190813.jar:/Users/nicolassleiman/.m2/repository/org/eclipse/jetty/jetty-servlets/9.4.20.v20190813/jetty-servlets-9.4.20.v20190813.jar:/Users/nicolassleiman/.m2/repository/org/eclipse/jetty/jetty-http/9.4.20.v20190813/jetty-http-9.4.20.v20190813.jar:/Users/nicolassleiman/.m2/repository/io/dropwizard/dropwizard-lifecycle/2.0.0-rc9/dropwizard-lifecycle-2.0.0-rc9.jar:/Users/nicolassleiman/.m2/repository/io/dropwizard/metrics/metrics-core/4.1.0/metrics-core-4.1.0.jar:/Users/nicolassleiman/.m2/repository/io/dropwizard/metrics/metrics-jvm/4.1.0/metrics-jvm-4.1.0.jar:/Users/nicolassleiman/.m2/repository/io/dropwizard/metrics/metrics-jmx/4.1.0/metrics-jmx-4.1.0.jar:/Users/nicolassleiman/.m2/repository/io/dropwizard/metrics/metrics-servlets/4.1.0/metrics-servlets-4.1.0.jar:/Users/nicolassleiman/.m2/repository/io/dropwizard/metrics/metrics-json/4.1.0/metrics-json-4.1.0.jar:/Users/nicolassleiman/.m2/repository/com/papertrail/profiler/1.0.2/profiler-1.0.2.jar:/Users/nicolassleiman/.m2/repository/io/dropwizard/metrics/metrics-healthchecks/4.1.0/metrics-healthchecks-4.1.0.jar:/Users/nicolassleiman/.m2/repository/io/dropwizard/dropwizard-request-logging/2.0.0-rc9/dropwizard-request-logging-2.0.0-rc9.jar:/Users/nicolassleiman/.m2/repository/ch/qos/logback/logback-access/1.2.3/logback-access-1.2.3.jar:/Users/nicolassleiman/.m2/repository/net/sourceforge/argparse4j/argparse4j/0.8.1/argparse4j-0.8.1.jar:/Users/nicolassleiman/.m2/repository/org/eclipse/jetty/toolchain/setuid/jetty-setuid-java/1.0.3/jetty-setuid-java-1.0.3.jar:/Users/nicolassleiman/.m2/repository/org/junit/jupiter/junit-jupiter-engine/5.5.1/junit-jupiter-engine-5.5.1.jar:/Users/nicolassleiman/.m2/repository/org/apiguardian/apiguardian-api/1.1.0/apiguardian-api-1.1.0.jar:/Users/nicolassleiman/.m2/repository/org/junit/platform/junit-platform-engine/1.5.1/junit-platform-engine-1.5.1.jar:/Users/nicolassleiman/.m2/repository/org/opentest4j/opentest4j/1.2.0/opentest4j-1.2.0.jar:/Users/nicolassleiman/.m2/repository/org/junit/platform/junit-platform-commons/1.5.1/junit-platform-commons-1.5.1.jar:/Users/nicolassleiman/.m2/repository/org/junit/jupiter/junit-jupiter-api/5.5.1/junit-jupiter-api-5.5.1.jar:/Users/nicolassleiman/.m2/repository/org/jacoco/jacoco-maven-plugin/0.8.4/jacoco-maven-plugin-0.8.4.jar:/Users/nicolassleiman/.m2/repository/org/apache/maven/maven-plugin-api/3.0/maven-plugin-api-3.0.jar:/Users/nicolassleiman/.m2/repository/org/apache/maven/maven-model/3.0/maven-model-3.0.jar:/Users/nicolassleiman/.m2/repository/org/apache/maven/maven-artifact/3.0/maven-artifact-3.0.jar:/Users/nicolassleiman/.m2/repository/org/sonatype/sisu/sisu-inject-plexus/1.4.2/sisu-inject-plexus-1.4.2.jar:/Users/nicolassleiman/.m2/repository/org/sonatype/sisu/sisu-inject-bean/1.4.2/sisu-inject-bean-1.4.2.jar:/Users/nicolassleiman/.m2/repository/org/sonatype/sisu/sisu-guice/2.1.7/sisu-guice-2.1.7-noaop.jar:/Users/nicolassleiman/.m2/repository/org/apache/maven/maven-core/3.0/maven-core-3.0.jar:/Users/nicolassleiman/.m2/repository/org/apache/maven/maven-settings/3.0/maven-settings-3.0.jar:/Users/nicolassleiman/.m2/repository/org/apache/maven/maven-settings-builder/3.0/maven-settings-builder-3.0.jar:/Users/nicolassleiman/.m2/repository/org/apache/maven/maven-repository-metadata/3.0/maven-repository-metadata-3.0.jar:/Users/nicolassleiman/.m2/repository/org/apache/maven/maven-model-builder/3.0/maven-model-builder-3.0.jar:/Users/nicolassleiman/.m2/repository/org/apache/maven/maven-aether-provider/3.0/maven-aether-provider-3.0.jar:/Users/nicolassleiman/.m2/repository/org/sonatype/aether/aether-impl/1.7/aether-impl-1.7.jar:/Users/nicolassleiman/.m2/repository/org/sonatype/aether/aether-spi/1.7/aether-spi-1.7.jar:/Users/nicolassleiman/.m2/repository/org/sonatype/aether/aether-api/1.7/aether-api-1.7.jar:/Users/nicolassleiman/.m2/repository/org/sonatype/aether/aether-util/1.7/aether-util-1.7.jar:/Users/nicolassleiman/.m2/repository/org/codehaus/plexus/plexus-interpolation/1.14/plexus-interpolation-1.14.jar:/Users/nicolassleiman/.m2/repository/org/codehaus/plexus/plexus-classworlds/2.2.3/plexus-classworlds-2.2.3.jar:/Users/nicolassleiman/.m2/repository/org/codehaus/plexus/plexus-component-annotations/1.5.5/plexus-component-annotations-1.5.5.jar:/Users/nicolassleiman/.m2/repository/org/sonatype/plexus/plexus-sec-dispatcher/1.3/plexus-sec-dispatcher-1.3.jar:/Users/nicolassleiman/.m2/repository/org/sonatype/plexus/plexus-cipher/1.4/plexus-cipher-1.4.jar:/Users/nicolassleiman/.m2/repository/org/codehaus/plexus/plexus-utils/3.0.22/plexus-utils-3.0.22.jar:/Users/nicolassleiman/.m2/repository/org/apache/maven/shared/file-management/1.2.1/file-management-1.2.1.jar:/Users/nicolassleiman/.m2/repository/org/apache/maven/shared/maven-shared-io/1.1/maven-shared-io-1.1.jar:/Users/nicolassleiman/.m2/repository/org/apache/maven/maven-artifact-manager/2.0.2/maven-artifact-manager-2.0.2.jar:/Users/nicolassleiman/.m2/repository/org/apache/maven/wagon/wagon-provider-api/1.0-alpha-6/wagon-provider-api-1.0-alpha-6.jar:/Users/nicolassleiman/.m2/repository/org/codehaus/plexus/plexus-container-default/1.0-alpha-9/plexus-container-default-1.0-alpha-9.jar:/Users/nicolassleiman/.m2/repository/classworlds/classworlds/1.1-alpha-2/classworlds-1.1-alpha-2.jar:/Users/nicolassleiman/.m2/repository/org/apache/maven/reporting/maven-reporting-api/3.0/maven-reporting-api-3.0.jar:/Users/nicolassleiman/.m2/repository/org/apache/maven/doxia/doxia-sink-api/1.0/doxia-sink-api-1.0.jar:/Users/nicolassleiman/.m2/repository/org/apache/maven/reporting/maven-reporting-impl/2.1/maven-reporting-impl-2.1.jar:/Users/nicolassleiman/.m2/repository/org/apache/maven/maven-project/2.0.10/maven-project-2.0.10.jar:/Users/nicolassleiman/.m2/repository/org/apache/maven/maven-profile/2.0.10/maven-profile-2.0.10.jar:/Users/nicolassleiman/.m2/repository/org/apache/maven/maven-plugin-registry/2.0.10/maven-plugin-registry-2.0.10.jar:/Users/nicolassleiman/.m2/repository/org/apache/maven/doxia/doxia-core/1.1.2/doxia-core-1.1.2.jar:/Users/nicolassleiman/.m2/repository/org/apache/maven/doxia/doxia-logging-api/1.1.2/doxia-logging-api-1.1.2.jar:/Users/nicolassleiman/.m2/repository/xerces/xercesImpl/2.8.1/xercesImpl-2.8.1.jar:/Users/nicolassleiman/.m2/repository/commons-lang/commons-lang/2.4/commons-lang-2.4.jar:/Users/nicolassleiman/.m2/repository/commons-httpclient/commons-httpclient/3.1/commons-httpclient-3.1.jar:/Users/nicolassleiman/.m2/repository/org/apache/maven/doxia/doxia-site-renderer/1.1.2/doxia-site-renderer-1.1.2.jar:/Users/nicolassleiman/.m2/repository/org/apache/maven/doxia/doxia-decoration-model/1.1.2/doxia-decoration-model-1.1.2.jar:/Users/nicolassleiman/.m2/repository/org/apache/maven/doxia/doxia-module-xhtml/1.1.2/doxia-module-xhtml-1.1.2.jar:/Users/nicolassleiman/.m2/repository/org/apache/maven/doxia/doxia-module-fml/1.1.2/doxia-module-fml-1.1.2.jar:/Users/nicolassleiman/.m2/repository/org/codehaus/plexus/plexus-i18n/1.0-beta-7/plexus-i18n-1.0-beta-7.jar:/Users/nicolassleiman/.m2/repository/org/codehaus/plexus/plexus-velocity/1.1.7/plexus-velocity-1.1.7.jar:/Users/nicolassleiman/.m2/repository/org/apache/velocity/velocity/1.5/velocity-1.5.jar:/Users/nicolassleiman/.m2/repository/commons-collections/commons-collections/3.2/commons-collections-3.2.jar:/Users/nicolassleiman/.m2/repository/commons-validator/commons-validator/1.2.0/commons-validator-1.2.0.jar:/Users/nicolassleiman/.m2/repository/commons-beanutils/commons-beanutils/1.7.0/commons-beanutils-1.7.0.jar:/Users/nicolassleiman/.m2/repository/commons-digester/commons-digester/1.6/commons-digester-1.6.jar:/Users/nicolassleiman/.m2/repository/oro/oro/2.0.8/oro-2.0.8.jar:/Users/nicolassleiman/.m2/repository/xml-apis/xml-apis/1.0.b2/xml-apis-1.0.b2.jar:/Users/nicolassleiman/.m2/repository/org/jacoco/org.jacoco.agent/0.8.4/org.jacoco.agent-0.8.4-runtime.jar:/Users/nicolassleiman/.m2/repository/org/jacoco/org.jacoco.core/0.8.4/org.jacoco.core-0.8.4.jar:/Users/nicolassleiman/.m2/repository/org/ow2/asm/asm/7.1/asm-7.1.jar:/Users/nicolassleiman/.m2/repository/org/ow2/asm/asm-commons/7.1/asm-commons-7.1.jar:/Users/nicolassleiman/.m2/repository/org/ow2/asm/asm-analysis/7.1/asm-analysis-7.1.jar:/Users/nicolassleiman/.m2/repository/org/ow2/asm/asm-tree/7.1/asm-tree-7.1.jar:/Users/nicolassleiman/.m2/repository/org/jacoco/org.jacoco.report/0.8.4/org.jacoco.report-0.8.4.jar:/Users/nicolassleiman/.m2/repository/org/slf4j/slf4j-api/1.7.28/slf4j-api-1.7.28.jar:/Users/nicolassleiman/.m2/repository/ch/qos/logback/logback-classic/1.2.3/logback-classic-1.2.3.jar:/Users/nicolassleiman/.m2/repository/ch/qos/logback/logback-core/1.2.3/logback-core-1.2.3.jar:/Users/nicolassleiman/.m2/repository/org/slf4j/jcl-over-slf4j/1.7.28/jcl-over-slf4j-1.7.28.jar:/Users/nicolassleiman/.m2/repository/com/mashape/unirest/unirest-java/1.4.9/unirest-java-1.4.9.jar:/Users/nicolassleiman/.m2/repository/org/apache/httpcomponents/httpclient/4.5.2/httpclient-4.5.2.jar:/Users/nicolassleiman/.m2/repository/org/apache/httpcomponents/httpcore/4.4.4/httpcore-4.4.4.jar:/Users/nicolassleiman/.m2/repository/commons-logging/commons-logging/1.2/commons-logging-1.2.jar:/Users/nicolassleiman/.m2/repository/commons-codec/commons-codec/1.9/commons-codec-1.9.jar:/Users/nicolassleiman/.m2/repository/org/apache/httpcomponents/httpasyncclient/4.1.1/httpasyncclient-4.1.1.jar:/Users/nicolassleiman/.m2/repository/org/apache/httpcomponents/httpcore-nio/4.4.4/httpcore-nio-4.4.4.jar:/Users/nicolassleiman/.m2/repository/org/apache/httpcomponents/httpmime/4.5.2/httpmime-4.5.2.jar:/Users/nicolassleiman/.m2/repository/org/json/json/20160212/json-20160212.jar:/Users/nicolassleiman/.m2/repository/io/dropwizard/dropwizard-testing/2.0.0-rc9/dropwizard-testing-2.0.0-rc9.jar:/Users/nicolassleiman/.m2/repository/org/objenesis/objenesis/3.0.1/objenesis-3.0.1.jar:/Users/nicolassleiman/.m2/repository/org/assertj/assertj-core/3.13.2/assertj-core-3.13.2.jar:/Users/nicolassleiman/.m2/repository/org/glassfish/jersey/test-framework/providers/jersey-test-framework-provider-inmemory/2.29/jersey-test-framework-provider-inmemory-2.29.jar:/Users/nicolassleiman/.m2/repository/org/glassfish/jersey/test-framework/jersey-test-framework-core/2.29/jersey-test-framework-core-2.29.jar:/Users/nicolassleiman/.m2/repository/jakarta/servlet/jakarta.servlet-api/4.0.2/jakarta.servlet-api-4.0.2.jar:/Users/nicolassleiman/.m2/repository/org/glassfish/jersey/core/jersey-client/2.29/jersey-client-2.29.jar:/Users/nicolassleiman/.m2/repository/junit/junit/4.12/junit-4.12.jar:/Users/nicolassleiman/.m2/repository/org/hamcrest/hamcrest-core/1.3/hamcrest-core-1.3.jar:"/>
    <property name="java.vm.vendor" value="Oracle Corporation"/>
    <property name="sun.arch.data.model" value="64"/>
    <property name="java.vendor.url" value="http://java.oracle.com/"/>
    <property name="user.timezone" value=""/>
    <property name="java.vm.specification.version" value="11"/>
    <property name="os.name" value="Mac OS X"/>
    <property name="sun.java.launcher" value="SUN_STANDARD"/>
    <property name="user.country" value="GB"/>
    <property name="sun.boot.library.path" value="/Library/Java/JavaVirtualMachines/jdk-11.0.4.jdk/Contents/Home/lib"/>
    <property name="sun.java.command" value="/Users/nicolassleiman/IdeaProjects/revolut/revolut-challenge/target/surefire/surefirebooter2838430664440858690.jar /Users/nicolassleiman/IdeaProjects/revolut/revolut-challenge/target/surefire 2019-09-08T19-45-41_000-jvmRun1 surefire13909966810988705937tmp surefire_09163648349748741432tmp"/>
    <property name="http.nonProxyHosts" value="local|*.local|169.254/16|*.169.254/16"/>
    <property name="jdk.debug" value="release"/>
    <property name="surefire.test.class.path" value="/Users/nicolassleiman/IdeaProjects/revolut/revolut-challenge/target/test-classes:/Users/nicolassleiman/IdeaProjects/revolut/revolut-challenge/target/classes:/Users/nicolassleiman/.m2/repository/io/dropwizard/dropwizard-core/2.0.0-rc9/dropwizard-core-2.0.0-rc9.jar:/Users/nicolassleiman/.m2/repository/io/dropwizard/dropwizard-util/2.0.0-rc9/dropwizard-util-2.0.0-rc9.jar:/Users/nicolassleiman/.m2/repository/com/fasterxml/jackson/core/jackson-annotations/2.9.0/jackson-annotations-2.9.0.jar:/Users/nicolassleiman/.m2/repository/com/google/guava/guava/28.1-jre/guava-28.1-jre.jar:/Users/nicolassleiman/.m2/repository/com/google/guava/failureaccess/1.0.1/failureaccess-1.0.1.jar:/Users/nicolassleiman/.m2/repository/com/google/guava/listenablefuture/9999.0-empty-to-avoid-conflict-with-guava/listenablefuture-9999.0-empty-to-avoid-conflict-with-guava.jar:/Users/nicolassleiman/.m2/repository/org/checkerframework/checker-qual/2.8.1/checker-qual-2.8.1.jar:/Users/nicolassleiman/.m2/repository/com/google/errorprone/error_prone_annotations/2.3.2/error_prone_annotations-2.3.2.jar:/Users/nicolassleiman/.m2/repository/com/google/j2objc/j2objc-annotations/1.3/j2objc-annotations-1.3.jar:/Users/nicolassleiman/.m2/repository/org/codehaus/mojo/animal-sniffer-annotations/1.18/animal-sniffer-annotations-1.18.jar:/Users/nicolassleiman/.m2/repository/com/google/code/findbugs/jsr305/3.0.2/jsr305-3.0.2.jar:/Users/nicolassleiman/.m2/repository/joda-time/joda-time/2.10.3/joda-time-2.10.3.jar:/Users/nicolassleiman/.m2/repository/io/dropwizard/dropwizard-jackson/2.0.0-rc9/dropwizard-jackson-2.0.0-rc9.jar:/Users/nicolassleiman/.m2/repository/com/github/ben-manes/caffeine/caffeine/2.8.0/caffeine-2.8.0.jar:/Users/nicolassleiman/.m2/repository/com/fasterxml/jackson/core/jackson-core/2.9.9/jackson-core-2.9.9.jar:/Users/nicolassleiman/.m2/repository/com/fasterxml/jackson/core/jackson-databind/2.9.9.3/jackson-databind-2.9.9.3.jar:/Users/nicolassleiman/.m2/repository/com/fasterxml/jackson/datatype/jackson-datatype-guava/2.9.9/jackson-datatype-guava-2.9.9.jar:/Users/nicolassleiman/.m2/repository/com/fasterxml/jackson/datatype/jackson-datatype-jsr310/2.9.9/jackson-datatype-jsr310-2.9.9.jar:/Users/nicolassleiman/.m2/repository/com/fasterxml/jackson/datatype/jackson-datatype-jdk8/2.9.9/jackson-datatype-jdk8-2.9.9.jar:/Users/nicolassleiman/.m2/repository/com/fasterxml/jackson/module/jackson-module-parameter-names/2.9.9/jackson-module-parameter-names-2.9.9.jar:/Users/nicolassleiman/.m2/repository/com/fasterxml/jackson/module/jackson-module-afterburner/2.9.9/jackson-module-afterburner-2.9.9.jar:/Users/nicolassleiman/.m2/repository/com/fasterxml/jackson/datatype/jackson-datatype-joda/2.9.9/jackson-datatype-joda-2.9.9.jar:/Users/nicolassleiman/.m2/repository/io/dropwizard/dropwizard-validation/2.0.0-rc9/dropwizard-validation-2.0.0-rc9.jar:/Users/nicolassleiman/.m2/repository/org/hibernate/validator/hibernate-validator/6.0.17.Final/hibernate-validator-6.0.17.Final.jar:/Users/nicolassleiman/.m2/repository/javax/validation/validation-api/2.0.1.Final/validation-api-2.0.1.Final.jar:/Users/nicolassleiman/.m2/repository/org/jboss/logging/jboss-logging/3.3.2.Final/jboss-logging-3.3.2.Final.jar:/Users/nicolassleiman/.m2/repository/com/fasterxml/classmate/1.3.4/classmate-1.3.4.jar:/Users/nicolassleiman/.m2/repository/org/glassfish/jakarta.el/3.0.2/jakarta.el-3.0.2.jar:/Users/nicolassleiman/.m2/repository/org/javassist/javassist/3.25.0-GA/javassist-3.25.0-GA.jar:/Users/nicolassleiman/.m2/repository/io/dropwizard/dropwizard-configuration/2.0.0-rc9/dropwizard-configuration-2.0.0-rc9.jar:/Users/nicolassleiman/.m2/repository/com/fasterxml/jackson/dataformat/jackson-dataformat-yaml/2.9.9/jackson-dataformat-yaml-2.9.9.jar:/Users/nicolassleiman/.m2/repository/org/yaml/snakeyaml/1.23/snakeyaml-1.23.jar:/Users/nicolassleiman/.m2/repository/org/apache/commons/commons-lang3/3.9/commons-lang3-3.9.jar:/Users/nicolassleiman/.m2/repository/org/apache/commons/commons-text/1.7/commons-text-1.7.jar:/Users/nicolassleiman/.m2/repository/io/dropwizard/dropwizard-logging/2.0.0-rc9/dropwizard-logging-2.0.0-rc9.jar:/Users/nicolassleiman/.m2/repository/io/dropwizard/metrics/metrics-logback/4.1.0/metrics-logback-4.1.0.jar:/Users/nicolassleiman/.m2/repository/org/slf4j/jul-to-slf4j/1.7.28/jul-to-slf4j-1.7.28.jar:/Users/nicolassleiman/.m2/repository/io/dropwizard/logback/logback-throttling-appender/1.0.1/logback-throttling-appender-1.0.1.jar:/Users/nicolassleiman/.m2/repository/org/slf4j/log4j-over-slf4j/1.7.28/log4j-over-slf4j-1.7.28.jar:/Users/nicolassleiman/.m2/repository/org/eclipse/jetty/jetty-util/9.4.20.v20190813/jetty-util-9.4.20.v20190813.jar:/Users/nicolassleiman/.m2/repository/io/dropwizard/dropwizard-metrics/2.0.0-rc9/dropwizard-metrics-2.0.0-rc9.jar:/Users/nicolassleiman/.m2/repository/io/dropwizard/dropwizard-jersey/2.0.0-rc9/dropwizard-jersey-2.0.0-rc9.jar:/Users/nicolassleiman/.m2/repository/org/glassfish/jersey/core/jersey-server/2.29/jersey-server-2.29.jar:/Users/nicolassleiman/.m2/repository/org/glassfish/jersey/core/jersey-common/2.29/jersey-common-2.29.jar:/Users/nicolassleiman/.m2/repository/org/glassfish/hk2/osgi-resource-locator/1.0.3/osgi-resource-locator-1.0.3.jar:/Users/nicolassleiman/.m2/repository/com/sun/activation/jakarta.activation/1.2.1/jakarta.activation-1.2.1.jar:/Users/nicolassleiman/.m2/repository/jakarta/ws/rs/jakarta.ws.rs-api/2.1.5/jakarta.ws.rs-api-2.1.5.jar:/Users/nicolassleiman/.m2/repository/org/glassfish/jersey/media/jersey-media-jaxb/2.29/jersey-media-jaxb-2.29.jar:/Users/nicolassleiman/.m2/repository/jakarta/annotation/jakarta.annotation-api/1.3.4/jakarta.annotation-api-1.3.4.jar:/Users/nicolassleiman/.m2/repository/org/glassfish/hk2/external/jakarta.inject/2.5.0/jakarta.inject-2.5.0.jar:/Users/nicolassleiman/.m2/repository/jakarta/xml/bind/jakarta.xml.bind-api/2.3.2/jakarta.xml.bind-api-2.3.2.jar:/Users/nicolassleiman/.m2/repository/jakarta/activation/jakarta.activation-api/1.2.1/jakarta.activation-api-1.2.1.jar:/Users/nicolassleiman/.m2/repository/org/glassfish/jersey/ext/jersey-metainf-services/2.29/jersey-metainf-services-2.29.jar:/Users/nicolassleiman/.m2/repository/org/glassfish/jersey/ext/jersey-bean-validation/2.29/jersey-bean-validation-2.29.jar:/Users/nicolassleiman/.m2/repository/org/glassfish/jersey/inject/jersey-hk2/2.29/jersey-hk2-2.29.jar:/Users/nicolassleiman/.m2/repository/org/glassfish/hk2/hk2-locator/2.5.0/hk2-locator-2.5.0.jar:/Users/nicolassleiman/.m2/repository/org/glassfish/hk2/external/aopalliance-repackaged/2.5.0/aopalliance-repackaged-2.5.0.jar:/Users/nicolassleiman/.m2/repository/org/glassfish/hk2/hk2-api/2.5.0/hk2-api-2.5.0.jar:/Users/nicolassleiman/.m2/repository/org/glassfish/hk2/hk2-utils/2.5.0/hk2-utils-2.5.0.jar:/Users/nicolassleiman/.m2/repository/io/dropwizard/metrics/metrics-jersey2/4.1.0/metrics-jersey2-4.1.0.jar:/Users/nicolassleiman/.m2/repository/com/fasterxml/jackson/jaxrs/jackson-jaxrs-json-provider/2.9.9/jackson-jaxrs-json-provider-2.9.9.jar:/Users/nicolassleiman/.m2/repository/com/fasterxml/jackson/jaxrs/jackson-jaxrs-base/2.9.9/jackson-jaxrs-base-2.9.9.jar:/Users/nicolassleiman/.m2/repository/com/fasterxml/jackson/module/jackson-module-jaxb-annotations/2.9.9/jackson-module-jaxb-annotations-2.9.9.jar:/Users/nicolassleiman/.m2/repository/org/glassfish/jersey/containers/jersey-container-servlet/2.29/jersey-container-servlet-2.29.jar:/Users/nicolassleiman/.m2/repository/org/glassfish/jersey/containers/jersey-container-servlet-core/2.29/jersey-container-servlet-core-2.29.jar:/Users/nicolassleiman/.m2/repository/org/eclipse/jetty/jetty-server/9.4.20.v20190813/jetty-server-9.4.20.v20190813.jar:/Users/nicolassleiman/.m2/repository/javax/servlet/javax.servlet-api/3.1.0/javax.servlet-api-3.1.0.jar:/Users/nicolassleiman/.m2/repository/org/eclipse/jetty/jetty-io/9.4.20.v20190813/jetty-io-9.4.20.v20190813.jar:/Users/nicolassleiman/.m2/repository/org/eclipse/jetty/jetty-webapp/9.4.20.v20190813/jetty-webapp-9.4.20.v20190813.jar:/Users/nicolassleiman/.m2/repository/org/eclipse/jetty/jetty-xml/9.4.20.v20190813/jetty-xml-9.4.20.v20190813.jar:/Users/nicolassleiman/.m2/repository/org/eclipse/jetty/jetty-continuation/9.4.20.v20190813/jetty-continuation-9.4.20.v20190813.jar:/Users/nicolassleiman/.m2/repository/javax/xml/bind/jaxb-api/2.3.1/jaxb-api-2.3.1.jar:/Users/nicolassleiman/.m2/repository/javax/activation/javax.activation-api/1.2.0/javax.activation-api-1.2.0.jar:/Users/nicolassleiman/.m2/repository/io/dropwizard/dropwizard-servlets/2.0.0-rc9/dropwizard-servlets-2.0.0-rc9.jar:/Users/nicolassleiman/.m2/repository/io/dropwizard/metrics/metrics-annotation/4.1.0/metrics-annotation-4.1.0.jar:/Users/nicolassleiman/.m2/repository/io/dropwizard/dropwizard-jetty/2.0.0-rc9/dropwizard-jetty-2.0.0-rc9.jar:/Users/nicolassleiman/.m2/repository/io/dropwizard/metrics/metrics-jetty9/4.1.0/metrics-jetty9-4.1.0.jar:/Users/nicolassleiman/.m2/repository/org/eclipse/jetty/jetty-servlet/9.4.20.v20190813/jetty-servlet-9.4.20.v20190813.jar:/Users/nicolassleiman/.m2/repository/org/eclipse/jetty/jetty-security/9.4.20.v20190813/jetty-security-9.4.20.v20190813.jar:/Users/nicolassleiman/.m2/repository/org/eclipse/jetty/jetty-servlets/9.4.20.v20190813/jetty-servlets-9.4.20.v20190813.jar:/Users/nicolassleiman/.m2/repository/org/eclipse/jetty/jetty-http/9.4.20.v20190813/jetty-http-9.4.20.v20190813.jar:/Users/nicolassleiman/.m2/repository/io/dropwizard/dropwizard-lifecycle/2.0.0-rc9/dropwizard-lifecycle-2.0.0-rc9.jar:/Users/nicolassleiman/.m2/repository/io/dropwizard/metrics/metrics-core/4.1.0/metrics-core-4.1.0.jar:/Users/nicolassleiman/.m2/repository/io/dropwizard/metrics/metrics-jvm/4.1.0/metrics-jvm-4.1.0.jar:/Users/nicolassleiman/.m2/repository/io/dropwizard/metrics/metrics-jmx/4.1.0/metrics-jmx-4.1.0.jar:/Users/nicolassleiman/.m2/repository/io/dropwizard/metrics/metrics-servlets/4.1.0/metrics-servlets-4.1.0.jar:/Users/nicolassleiman/.m2/repository/io/dropwizard/metrics/metrics-json/4.1.0/metrics-json-4.1.0.jar:/Users/nicolassleiman/.m2/repository/com/papertrail/profiler/1.0.2/profiler-1.0.2.jar:/Users/nicolassleiman/.m2/repository/io/dropwizard/metrics/metrics-healthchecks/4.1.0/metrics-healthchecks-4.1.0.jar:/Users/nicolassleiman/.m2/repository/io/dropwizard/dropwizard-request-logging/2.0.0-rc9/dropwizard-request-logging-2.0.0-rc9.jar:/Users/nicolassleiman/.m2/repository/ch/qos/logback/logback-access/1.2.3/logback-access-1.2.3.jar:/Users/nicolassleiman/.m2/repository/net/sourceforge/argparse4j/argparse4j/0.8.1/argparse4j-0.8.1.jar:/Users/nicolassleiman/.m2/repository/org/eclipse/jetty/toolchain/setuid/jetty-setuid-java/1.0.3/jetty-setuid-java-1.0.3.jar:/Users/nicolassleiman/.m2/repository/org/junit/jupiter/junit-jupiter-engine/5.5.1/junit-jupiter-engine-5.5.1.jar:/Users/nicolassleiman/.m2/repository/org/apiguardian/apiguardian-api/1.1.0/apiguardian-api-1.1.0.jar:/Users/nicolassleiman/.m2/repository/org/junit/platform/junit-platform-engine/1.5.1/junit-platform-engine-1.5.1.jar:/Users/nicolassleiman/.m2/repository/org/opentest4j/opentest4j/1.2.0/opentest4j-1.2.0.jar:/Users/nicolassleiman/.m2/repository/org/junit/platform/junit-platform-commons/1.5.1/junit-platform-commons-1.5.1.jar:/Users/nicolassleiman/.m2/repository/org/junit/jupiter/junit-jupiter-api/5.5.1/junit-jupiter-api-5.5.1.jar:/Users/nicolassleiman/.m2/repository/org/jacoco/jacoco-maven-plugin/0.8.4/jacoco-maven-plugin-0.8.4.jar:/Users/nicolassleiman/.m2/repository/org/apache/maven/maven-plugin-api/3.0/maven-plugin-api-3.0.jar:/Users/nicolassleiman/.m2/repository/org/apache/maven/maven-model/3.0/maven-model-3.0.jar:/Users/nicolassleiman/.m2/repository/org/apache/maven/maven-artifact/3.0/maven-artifact-3.0.jar:/Users/nicolassleiman/.m2/repository/org/sonatype/sisu/sisu-inject-plexus/1.4.2/sisu-inject-plexus-1.4.2.jar:/Users/nicolassleiman/.m2/repository/org/sonatype/sisu/sisu-inject-bean/1.4.2/sisu-inject-bean-1.4.2.jar:/Users/nicolassleiman/.m2/repository/org/sonatype/sisu/sisu-guice/2.1.7/sisu-guice-2.1.7-noaop.jar:/Users/nicolassleiman/.m2/repository/org/apache/maven/maven-core/3.0/maven-core-3.0.jar:/Users/nicolassleiman/.m2/repository/org/apache/maven/maven-settings/3.0/maven-settings-3.0.jar:/Users/nicolassleiman/.m2/repository/org/apache/maven/maven-settings-builder/3.0/maven-settings-builder-3.0.jar:/Users/nicolassleiman/.m2/repository/org/apache/maven/maven-repository-metadata/3.0/maven-repository-metadata-3.0.jar:/Users/nicolassleiman/.m2/repository/org/apache/maven/maven-model-builder/3.0/maven-model-builder-3.0.jar:/Users/nicolassleiman/.m2/repository/org/apache/maven/maven-aether-provider/3.0/maven-aether-provider-3.0.jar:/Users/nicolassleiman/.m2/repository/org/sonatype/aether/aether-impl/1.7/aether-impl-1.7.jar:/Users/nicolassleiman/.m2/repository/org/sonatype/aether/aether-spi/1.7/aether-spi-1.7.jar:/Users/nicolassleiman/.m2/repository/org/sonatype/aether/aether-api/1.7/aether-api-1.7.jar:/Users/nicolassleiman/.m2/repository/org/sonatype/aether/aether-util/1.7/aether-util-1.7.jar:/Users/nicolassleiman/.m2/repository/org/codehaus/plexus/plexus-interpolation/1.14/plexus-interpolation-1.14.jar:/Users/nicolassleiman/.m2/repository/org/codehaus/plexus/plexus-classworlds/2.2.3/plexus-classworlds-2.2.3.jar:/Users/nicolassleiman/.m2/repository/org/codehaus/plexus/plexus-component-annotations/1.5.5/plexus-component-annotations-1.5.5.jar:/Users/nicolassleiman/.m2/repository/org/sonatype/plexus/plexus-sec-dispatcher/1.3/plexus-sec-dispatcher-1.3.jar:/Users/nicolassleiman/.m2/repository/org/sonatype/plexus/plexus-cipher/1.4/plexus-cipher-1.4.jar:/Users/nicolassleiman/.m2/repository/org/codehaus/plexus/plexus-utils/3.0.22/plexus-utils-3.0.22.jar:/Users/nicolassleiman/.m2/repository/org/apache/maven/shared/file-management/1.2.1/file-management-1.2.1.jar:/Users/nicolassleiman/.m2/repository/org/apache/maven/shared/maven-shared-io/1.1/maven-shared-io-1.1.jar:/Users/nicolassleiman/.m2/repository/org/apache/maven/maven-artifact-manager/2.0.2/maven-artifact-manager-2.0.2.jar:/Users/nicolassleiman/.m2/repository/org/apache/maven/wagon/wagon-provider-api/1.0-alpha-6/wagon-provider-api-1.0-alpha-6.jar:/Users/nicolassleiman/.m2/repository/org/codehaus/plexus/plexus-container-default/1.0-alpha-9/plexus-container-default-1.0-alpha-9.jar:/Users/nicolassleiman/.m2/repository/classworlds/classworlds/1.1-alpha-2/classworlds-1.1-alpha-2.jar:/Users/nicolassleiman/.m2/repository/org/apache/maven/reporting/maven-reporting-api/3.0/maven-reporting-api-3.0.jar:/Users/nicolassleiman/.m2/repository/org/apache/maven/doxia/doxia-sink-api/1.0/doxia-sink-api-1.0.jar:/Users/nicolassleiman/.m2/repository/org/apache/maven/reporting/maven-reporting-impl/2.1/maven-reporting-impl-2.1.jar:/Users/nicolassleiman/.m2/repository/org/apache/maven/maven-project/2.0.10/maven-project-2.0.10.jar:/Users/nicolassleiman/.m2/repository/org/apache/maven/maven-profile/2.0.10/maven-profile-2.0.10.jar:/Users/nicolassleiman/.m2/repository/org/apache/maven/maven-plugin-registry/2.0.10/maven-plugin-registry-2.0.10.jar:/Users/nicolassleiman/.m2/repository/org/apache/maven/doxia/doxia-core/1.1.2/doxia-core-1.1.2.jar:/Users/nicolassleiman/.m2/repository/org/apache/maven/doxia/doxia-logging-api/1.1.2/doxia-logging-api-1.1.2.jar:/Users/nicolassleiman/.m2/repository/xerces/xercesImpl/2.8.1/xercesImpl-2.8.1.jar:/Users/nicolassleiman/.m2/repository/commons-lang/commons-lang/2.4/commons-lang-2.4.jar:/Users/nicolassleiman/.m2/repository/commons-httpclient/commons-httpclient/3.1/commons-httpclient-3.1.jar:/Users/nicolassleiman/.m2/repository/org/apache/maven/doxia/doxia-site-renderer/1.1.2/doxia-site-renderer-1.1.2.jar:/Users/nicolassleiman/.m2/repository/org/apache/maven/doxia/doxia-decoration-model/1.1.2/doxia-decoration-model-1.1.2.jar:/Users/nicolassleiman/.m2/repository/org/apache/maven/doxia/doxia-module-xhtml/1.1.2/doxia-module-xhtml-1.1.2.jar:/Users/nicolassleiman/.m2/repository/org/apache/maven/doxia/doxia-module-fml/1.1.2/doxia-module-fml-1.1.2.jar:/Users/nicolassleiman/.m2/repository/org/codehaus/plexus/plexus-i18n/1.0-beta-7/plexus-i18n-1.0-beta-7.jar:/Users/nicolassleiman/.m2/repository/org/codehaus/plexus/plexus-velocity/1.1.7/plexus-velocity-1.1.7.jar:/Users/nicolassleiman/.m2/repository/org/apache/velocity/velocity/1.5/velocity-1.5.jar:/Users/nicolassleiman/.m2/repository/commons-collections/commons-collections/3.2/commons-collections-3.2.jar:/Users/nicolassleiman/.m2/repository/commons-validator/commons-validator/1.2.0/commons-validator-1.2.0.jar:/Users/nicolassleiman/.m2/repository/commons-beanutils/commons-beanutils/1.7.0/commons-beanutils-1.7.0.jar:/Users/nicolassleiman/.m2/repository/commons-digester/commons-digester/1.6/commons-digester-1.6.jar:/Users/nicolassleiman/.m2/repository/oro/oro/2.0.8/oro-2.0.8.jar:/Users/nicolassleiman/.m2/repository/xml-apis/xml-apis/1.0.b2/xml-apis-1.0.b2.jar:/Users/nicolassleiman/.m2/repository/org/jacoco/org.jacoco.agent/0.8.4/org.jacoco.agent-0.8.4-runtime.jar:/Users/nicolassleiman/.m2/repository/org/jacoco/org.jacoco.core/0.8.4/org.jacoco.core-0.8.4.jar:/Users/nicolassleiman/.m2/repository/org/ow2/asm/asm/7.1/asm-7.1.jar:/Users/nicolassleiman/.m2/repository/org/ow2/asm/asm-commons/7.1/asm-commons-7.1.jar:/Users/nicolassleiman/.m2/repository/org/ow2/asm/asm-analysis/7.1/asm-analysis-7.1.jar:/Users/nicolassleiman/.m2/repository/org/ow2/asm/asm-tree/7.1/asm-tree-7.1.jar:/Users/nicolassleiman/.m2/repository/org/jacoco/org.jacoco.report/0.8.4/org.jacoco.report-0.8.4.jar:/Users/nicolassleiman/.m2/repository/org/slf4j/slf4j-api/1.7.28/slf4j-api-1.7.28.jar:/Users/nicolassleiman/.m2/repository/ch/qos/logback/logback-classic/1.2.3/logback-classic-1.2.3.jar:/Users/nicolassleiman/.m2/repository/ch/qos/logback/logback-core/1.2.3/logback-core-1.2.3.jar:/Users/nicolassleiman/.m2/repository/org/slf4j/jcl-over-slf4j/1.7.28/jcl-over-slf4j-1.7.28.jar:/Users/nicolassleiman/.m2/repository/com/mashape/unirest/unirest-java/1.4.9/unirest-java-1.4.9.jar:/Users/nicolassleiman/.m2/repository/org/apache/httpcomponents/httpclient/4.5.2/httpclient-4.5.2.jar:/Users/nicolassleiman/.m2/repository/org/apache/httpcomponents/httpcore/4.4.4/httpcore-4.4.4.jar:/Users/nicolassleiman/.m2/repository/commons-logging/commons-logging/1.2/commons-logging-1.2.jar:/Users/nicolassleiman/.m2/repository/commons-codec/commons-codec/1.9/commons-codec-1.9.jar:/Users/nicolassleiman/.m2/repository/org/apache/httpcomponents/httpasyncclient/4.1.1/httpasyncclient-4.1.1.jar:/Users/nicolassleiman/.m2/repository/org/apache/httpcomponents/httpcore-nio/4.4.4/httpcore-nio-4.4.4.jar:/Users/nicolassleiman/.m2/repository/org/apache/httpcomponents/httpmime/4.5.2/httpmime-4.5.2.jar:/Users/nicolassleiman/.m2/repository/org/json/json/20160212/json-20160212.jar:/Users/nicolassleiman/.m2/repository/io/dropwizard/dropwizard-testing/2.0.0-rc9/dropwizard-testing-2.0.0-rc9.jar:/Users/nicolassleiman/.m2/repository/org/objenesis/objenesis/3.0.1/objenesis-3.0.1.jar:/Users/nicolassleiman/.m2/repository/org/assertj/assertj-core/3.13.2/assertj-core-3.13.2.jar:/Users/nicolassleiman/.m2/repository/org/glassfish/jersey/test-framework/providers/jersey-test-framework-provider-inmemory/2.29/jersey-test-framework-provider-inmemory-2.29.jar:/Users/nicolassleiman/.m2/repository/org/glassfish/jersey/test-framework/jersey-test-framework-core/2.29/jersey-test-framework-core-2.29.jar:/Users/nicolassleiman/.m2/repository/jakarta/servlet/jakarta.servlet-api/4.0.2/jakarta.servlet-api-4.0.2.jar:/Users/nicolassleiman/.m2/repository/org/glassfish/jersey/core/jersey-client/2.29/jersey-client-2.29.jar:/Users/nicolassleiman/.m2/repository/junit/junit/4.12/junit-4.12.jar:/Users/nicolassleiman/.m2/repository/org/hamcrest/hamcrest-core/1.3/hamcrest-core-1.3.jar:"/>
    <property name="sun.cpu.endian" value="little"/>
    <property name="user.home" value="/Users/nicolassleiman"/>
    <property name="user.language" value="en"/>
    <property name="java.specification.vendor" value="Oracle Corporation"/>
    <property name="java.version.date" value="2019-07-16"/>
    <property name="java.home" value="/Library/Java/JavaVirtualMachines/jdk-11.0.4.jdk/Contents/Home"/>
    <property name="file.separator" value="/"/>
    <property name="basedir" value="/Users/nicolassleiman/IdeaProjects/revolut/revolut-challenge"/>
    <property name="java.vm.compressedOopsMode" value="Zero based"/>
    <property name="line.separator" value="&#10;"/>
    <property name="java.specification.name" value="Java Platform API Specification"/>
    <property name="java.vm.specification.vendor" value="Oracle Corporation"/>
    <property name="java.awt.graphicsenv" value="sun.awt.CGraphicsEnvironment"/>
    <property name="surefire.real.class.path" value="/Users/nicolassleiman/IdeaProjects/revolut/revolut-challenge/target/surefire/surefirebooter2838430664440858690.jar"/>
    <property name="sun.management.compiler" value="HotSpot 64-Bit Tiered Compilers"/>
    <property name="ftp.nonProxyHosts" value="local|*.local|169.254/16|*.169.254/16"/>
    <property name="java.runtime.version" value="11.0.4+10-LTS"/>
    <property name="user.name" value="nicolassleiman"/>
    <property name="path.separator" value=":"/>
    <property name="os.version" value="10.14.5"/>
    <property name="java.runtime.name" value="Java(TM) SE Runtime Environment"/>
    <property name="file.encoding" value="UTF-8"/>
    <property name="java.vm.name" value="Java HotSpot(TM) 64-Bit Server VM"/>
    <property name="java.vendor.version" value="18.9"/>
    <property name="localRepository" value="/Users/nicolassleiman/.m2/repository"/>
    <property name="java.vendor.url.bug" value="http://bugreport.java.com/bugreport/"/>
    <property name="java.io.tmpdir" value="/var/folders/_p/jjvxnj212rl8gp4x1p7tq1q40000gn/T/"/>
    <property name="java.version" value="11.0.4"/>
    <property name="user.dir" value="/Users/nicolassleiman/IdeaProjects/revolut/revolut-challenge"/>
    <property name="os.arch" value="x86_64"/>
    <property name="java.vm.specification.name" value="Java Virtual Machine Specification"/>
    <property name="java.awt.printerjob" value="sun.lwawt.macosx.CPrinterJob"/>
    <property name="idea.version2019.1.3" value="true"/>
    <property name="sun.os.patch.level" value="unknown"/>
    <property name="java.library.path" value="/Users/nicolassleiman/Library/Java/Extensions:/Library/Java/Extensions:/Network/Library/Java/Extensions:/System/Library/Java/Extensions:/usr/lib/java:."/>
    <property name="java.vendor" value="Oracle Corporation"/>
    <property name="java.vm.info" value="mixed mode"/>
    <property name="java.vm.version" value="11.0.4+10-LTS"/>
    <property name="sun.io.unicode.encoding" value="UnicodeBig"/>
    <property name="java.class.version" value="55.0"/>
    <property name="socksNonProxyHosts" value="local|*.local|169.254/16|*.169.254/16"/>
  </properties>
  <testcase name="addMoneyEntityNotFound" classname="resources.AccountResourceIntTest" time="0"/>
  <testcase name="addMoney" classname="resources.AccountResourceIntTest" time="0"/>
  <testcase name="getWithUnkownId" classname="resources.AccountResourceIntTest" time="0.001"/>
  <testcase name="get" classname="resources.AccountResourceIntTest" time="0"/>
  <testcase name="post" classname="resources.AccountResourceIntTest" time="0.012"/>
  <testcase name="postNoRepository" classname="resources.AccountResourceIntTest" time="0.001"/>
  <testcase name="getNoRepository" classname="resources.AccountResourceIntTest" time="0.001"/>
  <testcase name="postWithId" classname="resources.AccountResourceIntTest" time="0.001"/>
  <testcase name="addMoneyRepositoryNotFound" classname="resources.AccountResourceIntTest" time="0.001"/>
</testsuite>