/Users/nicolassleiman/IdeaProjects/revolut/revolut-challenge/src/test/java/resources/TransferResourceIntTest.java
/Users/nicolassleiman/IdeaProjects/revolut/revolut-challenge/src/test/java/repository/ModelImplementationRepositoryTest.java
/Users/nicolassleiman/IdeaProjects/revolut/revolut-challenge/src/test/java/domain/AccountTest.java
/Users/nicolassleiman/IdeaProjects/revolut/revolut-challenge/src/test/java/domain/ModelImplementationTest.java
/Users/nicolassleiman/IdeaProjects/revolut/revolut-challenge/src/test/java/resources/AccountResourceIntTest.java
/Users/nicolassleiman/IdeaProjects/revolut/revolut-challenge/src/test/java/repository/RepositoriesTest.java
/Users/nicolassleiman/IdeaProjects/revolut/revolut-challenge/src/test/java/domain/TransferTest.java
/Users/nicolassleiman/IdeaProjects/revolut/revolut-challenge/src/test/java/domain/ModelTest.java
/Users/nicolassleiman/IdeaProjects/revolut/revolut-challenge/src/test/java/TransferApplicationIntTest.java
